{
  "date": "2022-02-20",
  "rates": {
    "AUD": "309.03",
    "AZN": "252.73",
    "AMD": "9.02",
    "BYN": "167.1",
    "BRL": "82.82",
    "HUF": "13.68",
    "HKD": "54.92",
    "GEL": "145.19",
    "DKK": "65.48",
    "AED": "116.63",
    "USD": "428.32",
    "EUR": "486.96",
    "INR": "5.74",
    "IRR": "10.2",
    "CAD": "337.79",
    "CNY": "67.71",
    "KWD": "1418.28",
    "KGS": "5.05",
    "MYR": "102.37",
    "MXN": "21.12",
    "MDL": "23.93",
    "NOK": "48.04",
    "PLN": "107.64",
    "SAR": "114.15",
    "RUB": "5.65",
    "XDR": "600.99",
    "SGD": "318.93",
    "TJS": "37.97",
    "THB": "13.32",
    "TRY": "31.44",
    "UZS": "3.95",
    "UAH": "15.12",
    "GBP": "583.46",
    "CZK": "20.04",
    "SEK": "46.03",
    "CHF": "465.31",
    "ZAR": "28.58",
    "KRW": "35.88",
    "JPY": "3.72"
  }
}